{
    "admin": {
        "role": "admin", 
        "last_login": "2016-07-12 07:35:07.616848", 
        "hash": "FFHG+qNetow7ClpTCZcKYLiprxtYD3dDjw5PHlmXfXVns0Op3vHjnnPguq6bzpXRtdxI3X3ZLAIJ3qAyCaqu2g==", 
        "desc": "Admin"
    }
}